結構化的資料處理
…
Because summarise/do recognize group_by

Aggregation: group_by

Default group is iris

mutate/summarise/do apply the expressions to the group

We can split iris to several groups based on specific (categorical) variable

character or factor

group_by(iris, Species) # Nothing happens

## # A tibble: 150 x 5
## # Groups:   Species [3]
##    Sepal.Length Sepal.Width Petal.Length Petal.Width Species
##           <dbl>       <dbl>        <dbl>       <dbl> <fct>  
##  1          5.1         3.5          1.4         0.2 setosa 
##  2          4.9         3            1.4         0.2 setosa 
##  3          4.7         3.2          1.3         0.2 setosa 
##  4          4.6         3.1          1.5         0.2 setosa 
##  5          5           3.6          1.4         0.2 setosa 
##  6          5.4         3.9          1.7         0.4 setosa 
##  7          4.6         3.4          1.4         0.3 setosa 
##  8          5           3.4          1.5         0.2 setosa 
##  9          4.4         2.9          1.4         0.2 setosa 
## 10          4.9         3.1          1.5         0.1 setosa 
## # … with 140 more rows
…
範例

# . <- group_by(iris, Species)
group_by(iris, Species) %>%
# . <- mutate(., std.Sepal.Length = scale(Sepal.Length))
  mutate(std.Sepal.Length = scale(Sepal.Length)) %>%
# .[,4:6]  
  `[`(,4:6)

## # A tibble: 150 x 3
## # Groups:   Species [3]
##    Petal.Width Species std.Sepal.Length
##          <dbl> <fct>              <dbl>
##  1         0.2 setosa            0.267 
##  2         0.2 setosa           -0.301 
##  3         0.2 setosa           -0.868 
##  4         0.2 setosa           -1.15  
##  5         0.2 setosa           -0.0170
##  6         0.4 setosa            1.12  
##  7         0.3 setosa           -1.15  
##  8         0.2 setosa           -0.0170
##  9         0.2 setosa           -1.72  
## 10         0.1 setosa           -0.301 
## # … with 140 more rows
…
dplyr::left_join

data(flights)
left_join(flights, airlines, by = "carrier")

## # A tibble: 336,776 x 20
##     year month   day dep_time sched_dep_time dep_delay arr_time
##    <int> <int> <int>    <int>          <int>     <dbl>    <int>
##  1  2013     1     1      517            515         2      830
##  2  2013     1     1      533            529         4      850
##  3  2013     1     1      542            540         2      923
##  4  2013     1     1      544            545        -1     1004
##  5  2013     1     1      554            600        -6      812
##  6  2013     1     1      554            558        -4      740
##  7  2013     1     1      555            600        -5      913
##  8  2013     1     1      557            600        -3      709
##  9  2013     1     1      557            600        -3      838
## 10  2013     1     1      558            600        -2      753
## # … with 336,766 more rows, and 13 more variables: sched_arr_time <int>,
## #   arr_delay <dbl>, carrier <chr>, flight <int>, tailnum <chr>,
## #   origin <chr>, dest <chr>, air_time <dbl>, distance <dbl>, hour <dbl>,
## #   minute <dbl>, time_hour <dttm>, name <chr>

dplyr::left_join

data(flights)
left_join(flights, airlines)

## Joining, by = "carrier"

## # A tibble: 336,776 x 20
##     year month   day dep_time sched_dep_time dep_delay arr_time
##    <int> <int> <int>    <int>          <int>     <dbl>    <int>
##  1  2013     1     1      517            515         2      830
##  2  2013     1     1      533            529         4      850
##  3  2013     1     1      542            540         2      923
##  4  2013     1     1      544            545        -1     1004
##  5  2013     1     1      554            600        -6      812
##  6  2013     1     1      554            558        -4      740
##  7  2013     1     1      555            600        -5      913
##  8  2013     1     1      557            600        -3      709
##  9  2013     1     1      557            600        -3      838
## 10  2013     1     1      558            600        -2      753
## # … with 336,766 more rows, and 13 more variables: sched_arr_time <int>,
## #   arr_delay <dbl>, carrier <chr>, flight <int>, tailnum <chr>,
## #   origin <chr>, dest <chr>, air_time <dbl>, distance <dbl>, hour <dbl>,
## #   minute <dbl>, time_hour <dttm>, name <chr>
…
小練習

起飛機場的風速對抵達時間的延遲是不是有影響?

小練習

先看看風速與的抵達時間延遲的關係

left_join(flights, weather) %>%
  select(wind_speed, arr_delay)

## Joining, by = c("year", "month", "day", "origin", "hour", "time_hour")

## # A tibble: 336,776 x 2
##    wind_speed arr_delay
##         <dbl>     <dbl>
##  1       12.7        11
##  2       15.0        20
##  3       15.0        33
##  4       15.0       -18
##  5       16.1       -25
##  6       12.7        12
##  7       11.5        19
##  8       16.1       -14
##  9       13.8        -8
## 10       16.1         8
## # … with 336,766 more rows
…
小練習

是不是有time_hour欄位才導致NA？

問資料

select(flights, -time_hour) %>%
  left_join(weather) %>%
  select(wind_speed, arr_delay)

## Joining, by = c("year", "month", "day", "origin", "hour")

## # A tibble: 336,776 x 2
##    wind_speed arr_delay
##         <dbl>     <dbl>
##  1       12.7        11
##  2       15.0        20
##  3       15.0        33
##  4       15.0       -18
##  5       16.1       -25
##  6       12.7        12
##  7       11.5        19
##  8       16.1       -14
##  9       13.8        -8
## 10       16.1         8
## # … with 336,766 more rows
…
小練習

weather有漏失資料嘛？

問資料

filter(weather, year == 2013, month == 1, day == 1, origin == "EWR") %>%
  arrange(hour) %>%
  select(hour)

## # A tibble: 22 x 1
##     hour
##    <int>
##  1     1
##  2     2
##  3     3
##  4     4
##  5     5
##  6     6
##  7     7
##  8     8
##  9     9
## 10    10
## # … with 12 more rows

小練習

假設掉資料的現象並沒有特別的模式 –> 拿掉NA

left_join(flights, weather) %>%
  select(wind_speed, arr_delay) %>%
  filter(!is.na(wind_speed), !is.na(arr_delay))

## Joining, by = c("year", "month", "day", "origin", "hour", "time_hour")

## # A tibble: 325,741 x 2
##    wind_speed arr_delay
##         <dbl>     <dbl>
##  1       12.7        11
##  2       15.0        20
##  3       15.0        33
##  4       15.0       -18
##  5       16.1       -25
##  6       12.7        12
##  7       11.5        19
##  8       16.1       -14
##  9       13.8        -8
## 10       16.1         8
## # … with 325,731 more rows
…
